%YAML 1.1
%TAG !u! tag:unity3d.com,2011:
--- !u!1045 &1
EditorBuildSettings:
  m_ObjectHideFlags: 0
  serializedVersion: 2
  m_Scenes:
  - enabled: 1
    path: Assets/Scenes/level 1.unity
    guid: 2cda990e2423bbf4892e6590ba056729
  - enabled: 1
    path: Assets/Scenes/level 2.unity
    guid: a71c64a60603d6d40a86612846bbae7f
  - enabled: 1
    path: Assets/Scenes/level 3.unity
    guid: 21855e2bd131cbb44b1a5e1687fb2a4b
  m_configObjects: {}
